proto\PersonOuterClass$Empty.class
proto\PersonOuterClass$PersonResponse$1.class
proto\PersonServiceGrpc$PersonServiceImplBase.class
proto\PersonServiceGrpc.class
proto\PersonOuterClass$1.class
proto\PersonOuterClass$Person$Gen$1.class
proto\PersonOuterClass$Person$Gen.class
proto\PersonServiceGrpc$MethodHandlers.class
Main$1.class
proto\PersonServiceGrpc$PersonServiceFutureStub.class
proto\PersonServiceGrpc$PersonServiceBaseDescriptorSupplier.class
Main.class
proto\PersonOuterClass$PersonResponseOrBuilder.class
proto\PersonOuterClass$Empty$1.class
Main$2.class
proto\PersonServiceGrpc$PersonServiceStub.class
proto\PersonOuterClass$PersonRequest$1.class
proto\PersonOuterClass$Empty$Builder.class
proto\PersonOuterClass$PersonRequestOrBuilder.class
proto\PersonServiceGrpc$PersonServiceMethodDescriptorSupplier.class
proto\PersonServiceGrpc$PersonServiceBlockingStub.class
proto\PersonOuterClass$Person.class
proto\PersonServiceGrpc$1.class
proto\PersonOuterClass$PersonRequest.class
proto\PersonOuterClass$PersonResponse$Builder.class
proto\PersonOuterClass$EmptyOrBuilder.class
proto\PersonOuterClass.class
proto\PersonOuterClass$PersonResponse.class
proto\PersonServiceGrpc$PersonServiceFileDescriptorSupplier.class
proto\PersonOuterClass$PersonRequest$Builder.class
proto\PersonOuterClass$Person$1.class
proto\PersonOuterClass$Person$Builder.class
Main$3.class
proto\PersonOuterClass$PersonOrBuilder.class
